Proyects/FlipFlop/simulation/qsim/FlipflopD.msim.vcd
$comment
	File created using the following command:
		vcd file FlipflopD.msim.vcd -direction
$end
$date
	Mon Feb 20 08:49:43 2023
$end
$version
	ModelSim Version 10.5b
$end
$timescale
	1ps
$end

$scope module flipflopd_vhd_vec_tst $end
$var wire 1 ! Dato $end
$var wire 1 " Reloj $end
$var wire 1 # Salida $end

$scope module i1 $end
$var wire 1 $ gnd $end
$var wire 1 % vcc $end
$var wire 1 & unknown $end
$var wire 1 ' devoe $end
$var wire 1 ( devclrn $end
$var wire 1 ) devpor $end
$var wire 1 * ww_devoe $end
$var wire 1 + ww_devclrn $end
$var wire 1 , ww_devpor $end
$var wire 1 - ww_Dato $end
$var wire 1 . ww_Reloj $end
$var wire 1 / ww_Salida $end
$var wire 1 0 \~QUARTUS_CREATED_ADC1~_CHSEL_bus\ [4] $end
$var wire 1 1 \~QUARTUS_CREATED_ADC1~_CHSEL_bus\ [3] $end
$var wire 1 2 \~QUARTUS_CREATED_ADC1~_CHSEL_bus\ [2] $end
$var wire 1 3 \~QUARTUS_CREATED_ADC1~_CHSEL_bus\ [1] $end
$var wire 1 4 \~QUARTUS_CREATED_ADC1~_CHSEL_bus\ [0] $end
$var wire 1 5 \~QUARTUS_CREATED_ADC2~_CHSEL_bus\ [4] $end
$var wire 1 6 \~QUARTUS_CREATED_ADC2~_CHSEL_bus\ [3] $end
$var wire 1 7 \~QUARTUS_CREATED_ADC2~_CHSEL_bus\ [2] $end
$var wire 1 8 \~QUARTUS_CREATED_ADC2~_CHSEL_bus\ [1] $end
$var wire 1 9 \~QUARTUS_CREATED_ADC2~_CHSEL_bus\ [0] $end
$var wire 1 : \~QUARTUS_CREATED_GND~I_combout\ $end
$var wire 1 ; \~QUARTUS_CREATED_UNVM~~busy\ $end
$var wire 1 < \~QUARTUS_CREATED_ADC1~~eoc\ $end
$var wire 1 = \~QUARTUS_CREATED_ADC2~~eoc\ $end
$var wire 1 > \Salida~output_o\ $end
$var wire 1 ? \Reloj~input_o\ $end
$var wire 1 @ \Dato~input_o\ $end
$var wire 1 A \F~feeder_combout\ $end
$var wire 1 B \F~q\ $end
$upscope $end
$upscope $end
$enddefinitions $end
#0
$dumpvars
1!
0"
0#
0$
1%
x&
1'
1(
1)
1*
1+
1,
1-
0.
0/
0:
z;
z<
z=
0>
0?
1@
1A
0B
00
01
02
03
04
05
06
07
08
09
$end
#50000
1"
1.
1?
1B
1>
1/
1#
#100000
0"
0!
0.
0-
0@
0?
0A
#150000
1"
1.
1?
0B
0>
0/
0#
#200000
0"
1!
0.
1-
1@
0?
1A
#250000
1"
1.
1?
1B
1>
1/
1#
#300000
0"
0!
0.
0-
0@
0?
0A
#350000
1"
1.
1?
0B
0>
0/
0#
#400000
0"
0.
0?
#450000
1"
1.
1?
#500000
0"
1!
0.
1-
1@
0?
1A
#550000
1"
1.
1?
1B
1>
1/
1#
#600000
0"
0!
0.
0-
0@
0?
0A
#650000
1"
1.
1?
0B
0>
0/
0#
#700000
0"
0.
0?
#750000
1"
1.
1?
#800000
0"
0.
0?
#850000
1"
1.
1?
#900000
0"
0.
0?
#950000
1"
1.
1?
