Proyects/MyPrimos/simulation/qsim/MyPrimos.msim.vcd
$comment
	File created using the following command:
		vcd file MyPrimos.msim.vcd -direction
$end
$date
	Tue Feb 14 09:24:45 2023
$end
$version
	ModelSim Version 10.5b
$end
$timescale
	1ps
$end

$scope module MyPrimos_vlg_vec_tst $end
$var reg 1 ! A $end
$var reg 1 " B $end
$var reg 1 # C $end
$var reg 1 $ D $end
$var wire 1 % P $end

$scope module i1 $end
$var wire 1 & gnd $end
$var wire 1 ' vcc $end
$var wire 1 ( unknown $end
$var tri1 1 ) devclrn $end
$var tri1 1 * devpor $end
$var tri1 1 + devoe $end
$var wire 1 , D~input_o $end
$var wire 1 - ~QUARTUS_CREATED_GND~I_combout $end
$var wire 1 . ~QUARTUS_CREATED_UNVM~~busy $end
$var wire 1 / ~QUARTUS_CREATED_ADC1~~eoc $end
$var wire 1 0 ~QUARTUS_CREATED_ADC2~~eoc $end
$var wire 1 1 P~output_o $end
$var wire 1 2 B~input_o $end
$var wire 1 3 C~input_o $end
$var wire 1 4 A~input_o $end
$var wire 1 5 P~4_combout $end
$upscope $end
$upscope $end
$enddefinitions $end
#0
$dumpvars
0!
0"
0#
0$
0%
0&
1'
x(
1)
1*
1+
0,
0-
z.
z/
z0
01
02
03
04
05
$end
#200000
1#
13
#400000
1"
0#
03
12
#600000
1#
13
15
11
1%
#800000
1!
0"
0#
03
02
14
05
01
0%
#1000000
1#
13
15
11
1%
#1200000
1"
0#
03
12
#1400000
1#
13
#1600000
0!
0"
0#
03
02
04
05
01
0%
#1800000
1#
13
